<svg width="130" height="68" viewBox="0 0 130 68" fill="none" xmlns="http://www.w3.org/2000/svg">
<rect x="129.445" y="0.445312" width="67" height="29" rx="5" transform="rotate(90 129.445 0.445312)" fill="#EFEFEF"/>
<rect width="129.173" height="29.1094" rx="5" fill="#EFEFEF"/>
<rect x="0.445312" y="67.4453" width="67" height="29" rx="5" transform="rotate(-90 0.445312 67.4453)" fill="#EFEFEF"/>
<path d="M37.8525 65.7989C38.0478 65.9941 38.3644 65.9941 38.5597 65.7989L41.7416 62.6169C41.9369 62.4216 41.9369 62.105 41.7416 61.9098C41.5464 61.7145 41.2298 61.7145 41.0345 61.9098L38.2061 64.7382L35.3777 61.9098C35.1824 61.7145 34.8658 61.7145 34.6706 61.9098C34.4753 62.105 34.4753 62.4216 34.6706 62.6169L37.8525 65.7989ZM90.6134 65.7989C90.8086 65.9941 91.1252 65.9941 91.3205 65.7989L94.5024 62.6169C94.6977 62.4216 94.6977 62.105 94.5024 61.9098C94.3072 61.7145 93.9906 61.7145 93.7953 61.9098L90.9669 64.7382L88.1385 61.9098C87.9432 61.7145 87.6266 61.7145 87.4314 61.9098C87.2361 62.105 87.2361 62.4216 87.4314 62.6169L90.6134 65.7989ZM90.9669 37.7513L91.4669 37.7513L91.4669 37.2513L90.9669 37.2513V37.7513ZM38.2061 37.7513L38.2061 37.2513L37.7061 37.2513L37.7061 37.7513L38.2061 37.7513ZM90.4669 37.7513L90.4669 65.4453L91.4669 65.4453L91.4669 37.7513L90.4669 37.7513ZM38.7061 65.4453L38.7061 37.7513L37.7061 37.7513L37.7061 65.4453L38.7061 65.4453ZM38.2061 38.2513L90.9669 38.2513V37.2513L38.2061 37.2513L38.2061 38.2513Z" fill="#EFEFEF"/>
<path d="M108.79 35.9986C108.79 34.4213 109.229 33.2173 110.106 32.3866C110.983 31.5653 112.229 31.1546 113.844 31.1546C114.647 31.1546 115.361 31.2806 115.986 31.5326C116.621 31.7846 117.153 32.1299 117.582 32.5686C118.021 33.0073 118.352 33.5299 118.576 34.1366C118.8 34.7433 118.912 35.4013 118.912 36.1106C118.912 36.5213 118.879 36.8946 118.814 37.2306C118.758 37.5666 118.688 37.8606 118.604 38.1126C118.529 38.3646 118.45 38.5746 118.366 38.7426C118.282 38.9106 118.217 39.0319 118.17 39.1066L116.406 38.4766C116.565 38.1779 116.7 37.8279 116.812 37.4266C116.924 37.0346 116.98 36.5866 116.98 36.0826C116.98 35.7466 116.924 35.4153 116.812 35.0886C116.7 34.7713 116.518 34.4866 116.266 34.2346C116.023 33.9919 115.706 33.7959 115.314 33.6466C114.922 33.4973 114.446 33.4226 113.886 33.4226C113.438 33.4226 113.018 33.4693 112.626 33.5626C112.243 33.6653 111.912 33.8239 111.632 34.0386C111.352 34.2626 111.128 34.5519 110.96 34.9066C110.801 35.2613 110.722 35.6906 110.722 36.1946C110.722 36.5119 110.741 36.7966 110.778 37.0486C110.815 37.3006 110.857 37.5246 110.904 37.7206C110.96 37.9166 111.021 38.0893 111.086 38.2386C111.151 38.3879 111.212 38.5233 111.268 38.6446L109.518 39.2466C109.331 38.9386 109.163 38.5046 109.014 37.9446C108.865 37.3846 108.79 36.7359 108.79 35.9986Z" fill="#939CB6"/>
<path d="M19.4033 36.2524C19.4033 36.7844 19.3847 37.3164 19.3473 37.8484C19.3193 38.3711 19.2447 38.9171 19.1233 39.4864H9.71534C9.63134 39.0384 9.57068 38.5484 9.53334 38.0164C9.48668 37.4844 9.46334 36.9898 9.46334 36.5324C9.46334 35.9164 9.51001 35.3518 9.60334 34.8384C9.68734 34.3158 9.83668 33.8678 10.0513 33.4944C10.266 33.1211 10.5507 32.8318 10.9053 32.6264C11.2507 32.4118 11.68 32.3044 12.1933 32.3044C12.968 32.3044 13.5793 32.6778 14.0273 33.4244C14.2607 32.8084 14.578 32.3884 14.9793 32.1644C15.3807 31.9404 15.8333 31.8284 16.3373 31.8284C17.3547 31.8284 18.12 32.2018 18.6333 32.9484C19.1467 33.6858 19.4033 34.7871 19.4033 36.2524ZM15.0493 37.3584H17.5553C17.574 37.1998 17.588 37.0271 17.5973 36.8404C17.6067 36.6538 17.6113 36.4484 17.6113 36.2244C17.6113 35.5711 17.518 35.0438 17.3313 34.6424C17.1447 34.2411 16.7993 34.0404 16.2953 34.0404C15.8473 34.0404 15.53 34.2084 15.3433 34.5444C15.1473 34.8804 15.0493 35.3611 15.0493 35.9864V37.3584ZM13.3833 37.3584V36.2944C13.3833 35.6224 13.2993 35.1418 13.1313 34.8524C12.954 34.5631 12.674 34.4184 12.2913 34.4184C11.8993 34.4184 11.624 34.5678 11.4653 34.8664C11.3067 35.1651 11.2273 35.6038 11.2273 36.1824C11.2273 36.3691 11.232 36.5698 11.2413 36.7844C11.2413 36.9991 11.2507 37.1904 11.2693 37.3584H13.3833Z" fill="#939CB6"/>
<path d="M66.7027 18.3677C66.6001 18.0317 66.4834 17.6863 66.3527 17.3317C66.2314 16.977 66.1101 16.6223 65.9887 16.2677H62.2087C62.0874 16.6223 61.9614 16.977 61.8307 17.3317C61.7094 17.6863 61.5974 18.0317 61.4947 18.3677H59.2267C59.5907 17.3223 59.9361 16.3563 60.2627 15.4697C60.5894 14.583 60.9067 13.7477 61.2147 12.9637C61.5321 12.1797 61.8401 11.4377 62.1387 10.7377C62.4467 10.0283 62.7641 9.33768 63.0907 8.66568H65.1767C65.4941 9.33768 65.8067 10.0283 66.1147 10.7377C66.4227 11.4377 66.7307 12.1797 67.0387 12.9637C67.3561 13.7477 67.6781 14.583 68.0047 15.4697C68.3314 16.3563 68.6767 17.3223 69.0407 18.3677H66.7027ZM64.0847 10.8637C64.0381 11.0037 63.9681 11.195 63.8747 11.4377C63.7814 11.6803 63.6741 11.9603 63.5527 12.2777C63.4314 12.595 63.2961 12.945 63.1467 13.3277C63.0067 13.7103 62.8621 14.1117 62.7127 14.5317H65.4707C65.3214 14.1117 65.1767 13.7103 65.0367 13.3277C64.8967 12.945 64.7614 12.595 64.6307 12.2777C64.5094 11.9603 64.4021 11.6803 64.3087 11.4377C64.2154 11.195 64.1407 11.0037 64.0847 10.8637Z" fill="#939CB6"/>
</svg>
