<svg width="130" height="68" viewBox="0 0 130 68" fill="none" xmlns="http://www.w3.org/2000/svg">
<rect x="29.1743" y="0.44519" width="67" height="29" rx="5" transform="rotate(90 29.1743 0.44519)" fill="#EFEFEF"/>
<rect width="129.173" height="29.1094" rx="5" fill="#EFEFEF"/>
<path d="M19.4033 34.3426C19.4033 34.8746 19.3847 35.4066 19.3473 35.9386C19.3193 36.4613 19.2447 37.0073 19.1233 37.5766H9.71534C9.63134 37.1286 9.57068 36.6386 9.53334 36.1066C9.48668 35.5746 9.46334 35.08 9.46334 34.6226C9.46334 34.0066 9.51001 33.442 9.60334 32.9286C9.68734 32.406 9.83668 31.958 10.0513 31.5846C10.266 31.2113 10.5507 30.922 10.9053 30.7166C11.2507 30.502 11.68 30.3946 12.1933 30.3946C12.968 30.3946 13.5793 30.768 14.0273 31.5146C14.2607 30.8986 14.578 30.4786 14.9793 30.2546C15.3807 30.0306 15.8333 29.9186 16.3373 29.9186C17.3547 29.9186 18.12 30.292 18.6333 31.0386C19.1467 31.776 19.4033 32.8773 19.4033 34.3426ZM15.0493 35.4486H17.5553C17.574 35.29 17.588 35.1173 17.5973 34.9306C17.6067 34.744 17.6113 34.5386 17.6113 34.3146C17.6113 33.6613 17.518 33.134 17.3313 32.7326C17.1447 32.3313 16.7993 32.1306 16.2953 32.1306C15.8473 32.1306 15.53 32.2986 15.3433 32.6346C15.1473 32.9706 15.0493 33.4513 15.0493 34.0766V35.4486ZM13.3833 35.4486V34.3846C13.3833 33.7126 13.2993 33.232 13.1313 32.9426C12.954 32.6533 12.674 32.5086 12.2913 32.5086C11.8993 32.5086 11.624 32.658 11.4653 32.9566C11.3067 33.2553 11.2273 33.694 11.2273 34.2726C11.2273 34.4593 11.232 34.66 11.2413 34.8746C11.2413 35.0893 11.2507 35.2806 11.2693 35.4486H13.3833Z" fill="#939CB6"/>
<path d="M67.6125 18.3676C67.5098 18.0316 67.3931 17.6863 67.2625 17.3316C67.1411 16.9769 67.0198 16.6223 66.8985 16.2676H63.1185C62.9971 16.6223 62.8711 16.9769 62.7405 17.3316C62.6191 17.6863 62.5071 18.0316 62.4045 18.3676H60.1365C60.5005 17.3223 60.8458 16.3563 61.1725 15.4696C61.4991 14.5829 61.8165 13.7476 62.1245 12.9636C62.4418 12.1796 62.7498 11.4376 63.0485 10.7376C63.3565 10.0283 63.6738 9.33761 64.0005 8.66561H66.0865C66.4038 9.33761 66.7165 10.0283 67.0245 10.7376C67.3325 11.4376 67.6405 12.1796 67.9485 12.9636C68.2658 13.7476 68.5878 14.5829 68.9145 15.4696C69.2411 16.3563 69.5865 17.3223 69.9505 18.3676H67.6125ZM64.9945 10.8636C64.9478 11.0036 64.8778 11.1949 64.7845 11.4376C64.6911 11.6803 64.5838 11.9603 64.4625 12.2776C64.3411 12.5949 64.2058 12.9449 64.0565 13.3276C63.9165 13.7103 63.7718 14.1116 63.6225 14.5316H66.3805C66.2311 14.1116 66.0865 13.7103 65.9465 13.3276C65.8065 12.9449 65.6711 12.5949 65.5405 12.2776C65.4191 11.9603 65.3118 11.6803 65.2185 11.4376C65.1251 11.1949 65.0505 11.0036 64.9945 10.8636Z" fill="#939CB6"/>
<path d="M37.8526 67.2987C38.0479 67.494 38.3645 67.494 38.5597 67.2987L41.7417 64.1168C41.937 63.9215 41.937 63.6049 41.7417 63.4097C41.5464 63.2144 41.2299 63.2144 41.0346 63.4097L38.2062 66.2381L35.3777 63.4097C35.1825 63.2144 34.8659 63.2144 34.6706 63.4097C34.4754 63.6049 34.4754 63.9215 34.6706 64.1168L37.8526 67.2987ZM129.527 38.1048C129.722 37.9095 129.722 37.5929 129.527 37.3977L126.345 34.2157C126.149 34.0204 125.833 34.0204 125.638 34.2157C125.442 34.411 125.442 34.7275 125.638 34.9228L128.466 37.7512L125.638 40.5797C125.442 40.7749 125.442 41.0915 125.638 41.2868C125.833 41.482 126.149 41.482 126.345 41.2868L129.527 38.1048ZM38.2062 37.7512L38.2062 37.2512L37.7062 37.2512L37.7062 37.7512L38.2062 37.7512ZM38.7062 66.9452L38.7062 37.7512L37.7062 37.7512L37.7062 66.9452L38.7062 66.9452ZM38.2062 38.2512L129.173 38.2512L129.173 37.2512L38.2062 37.2512L38.2062 38.2512Z" fill="#EFEFEF"/>
</svg>
